<?xml version='1.0' encoding='UTF-8'?>
<glyph name="downArrow" format="2">
  <advance width="1375"/>
  <unicode hex="2193"/>
  <outline>
    <component base="rightArrow" xScale="0" xyScale="-1" yScale="0" yxScale="1" xOffset="33" yOffset="1576"/>
  </outline>
  <lib>
    <dict>
      <key>com.schriftgestaltung.Glyphs.lastChange</key>
      <string>2024-03-18 11:32:03 +0000</string>
    </dict>
  </lib>
</glyph>
