<?xml version='1.0' encoding='UTF-8'?>
<glyph name="e_u_r_i_c_e.ss03" format="2">
  <advance width="3369"/>
  <unicode hex="F4B13"/>
  <note>
uF4593
</note>
  <outline>
    <contour>
      <point x="1805" y="1523" type="line"/>
      <point x="2138" y="1090" type="line"/>
      <point x="2311" y="1091" type="line"/>
      <point x="1892" y="1635" type="line"/>
      <point x="2295" y="2153" type="line"/>
      <point x="2121" y="2153" type="line"/>
      <point x="1807" y="1746" type="line"/>
      <point x="1493" y="2153" type="line"/>
      <point x="1321" y="2153" type="line"/>
      <point x="1720" y="1634" type="line"/>
      <point x="1301" y="1092" type="line"/>
      <point x="1470" y="1091" type="line"/>
    </contour>
    <contour>
      <point x="-90" y="-639" type="curve" smooth="yes"/>
      <point x="-90" y="-736"/>
      <point x="-71" y="-827"/>
      <point x="-32" y="-911" type="curve" smooth="yes"/>
      <point x="7" y="-995"/>
      <point x="60" y="-1062"/>
      <point x="128" y="-1112" type="curve" smooth="yes"/>
      <point x="197" y="-1163"/>
      <point x="272" y="-1188"/>
      <point x="355" y="-1188" type="curve" smooth="yes"/>
      <point x="454" y="-1188"/>
      <point x="541" y="-1153"/>
      <point x="615" y="-1083" type="curve" smooth="yes"/>
      <point x="689" y="-1013"/>
      <point x="741" y="-922"/>
      <point x="772" y="-810" type="curve"/>
      <point x="637" y="-810" type="line"/>
      <point x="611" y="-884"/>
      <point x="573" y="-943"/>
      <point x="524" y="-988" type="curve" smooth="yes"/>
      <point x="475" y="-1032"/>
      <point x="419" y="-1054"/>
      <point x="354" y="-1054" type="curve" smooth="yes"/>
      <point x="295" y="-1054"/>
      <point x="242" y="-1035"/>
      <point x="194" y="-996" type="curve" smooth="yes"/>
      <point x="146" y="-958"/>
      <point x="109" y="-907"/>
      <point x="82" y="-844" type="curve" smooth="yes"/>
      <point x="56" y="-781"/>
      <point x="43" y="-712"/>
      <point x="43" y="-639" type="curve" smooth="yes"/>
      <point x="43" y="-620" type="line"/>
      <point x="777" y="-620" type="line"/>
      <point x="777" y="-540"/>
      <point x="765" y="-466"/>
      <point x="741" y="-398" type="curve" smooth="yes"/>
      <point x="717" y="-331"/>
      <point x="685" y="-275"/>
      <point x="646" y="-231" type="curve" smooth="yes"/>
      <point x="607" y="-187"/>
      <point x="562" y="-153"/>
      <point x="512" y="-128" type="curve" smooth="yes"/>
      <point x="463" y="-104"/>
      <point x="412" y="-92"/>
      <point x="360" y="-92" type="curve" smooth="yes"/>
      <point x="277" y="-92"/>
      <point x="201" y="-117"/>
      <point x="132" y="-167" type="curve" smooth="yes"/>
      <point x="63" y="-217"/>
      <point x="8" y="-284"/>
      <point x="-31" y="-368" type="curve" smooth="yes"/>
      <point x="-70" y="-451"/>
      <point x="-90" y="-542"/>
    </contour>
    <contour>
      <point x="640" y="-492" type="curve"/>
      <point x="67" y="-492" type="line"/>
      <point x="83" y="-436"/>
      <point x="103" y="-391"/>
      <point x="128" y="-356" type="curve" smooth="yes"/>
      <point x="156" y="-316"/>
      <point x="190" y="-285"/>
      <point x="230" y="-262" type="curve" smooth="yes"/>
      <point x="269" y="-239"/>
      <point x="312" y="-227"/>
      <point x="357" y="-227" type="curve" smooth="yes"/>
      <point x="396" y="-227"/>
      <point x="435" y="-237"/>
      <point x="472" y="-256" type="curve" smooth="yes"/>
      <point x="509" y="-275"/>
      <point x="544" y="-305"/>
      <point x="575" y="-346" type="curve" smooth="yes"/>
      <point x="604" y="-383"/>
      <point x="625" y="-431"/>
    </contour>
    <contour>
      <point x="188" y="1073" type="line"/>
      <point x="188" y="0" type="line"/>
      <point x="322" y="0" type="line"/>
      <point x="322" y="619" type="line"/>
      <point x="326" y="681"/>
      <point x="337" y="736"/>
      <point x="356" y="784" type="curve" smooth="yes"/>
      <point x="375" y="831"/>
      <point x="402" y="870"/>
      <point x="436" y="900" type="curve" smooth="yes"/>
      <point x="469" y="931"/>
      <point x="509" y="951"/>
      <point x="556" y="960" type="curve" smooth="yes"/>
      <point x="603" y="969"/>
      <point x="657" y="965"/>
      <point x="717" y="950" type="curve"/>
      <point x="717" y="1080" type="line"/>
      <point x="634" y="1103"/>
      <point x="559" y="1103"/>
      <point x="492" y="1080" type="curve" smooth="yes"/>
      <point x="425" y="1057"/>
      <point x="369" y="1016"/>
      <point x="322" y="956" type="curve"/>
      <point x="322" y="1073" type="line"/>
    </contour>
    <contour>
      <point x="972" y="1065" type="line"/>
      <point x="972" y="0" type="line"/>
      <point x="1106" y="0" type="line"/>
      <point x="1106" y="1065" type="line"/>
    </contour>
    <contour>
      <point x="973" y="1470" type="line"/>
      <point x="973" y="1296" type="line"/>
      <point x="1107" y="1296" type="line"/>
      <point x="1107" y="1470" type="line"/>
    </contour>
    <contour>
      <point x="981" y="-115" type="line"/>
      <point x="981" y="-647" type="line" smooth="yes"/>
      <point x="982" y="-720"/>
      <point x="992" y="-789"/>
      <point x="1013" y="-854" type="curve" smooth="yes"/>
      <point x="1034" y="-920"/>
      <point x="1062" y="-978"/>
      <point x="1098" y="-1028" type="curve" smooth="yes"/>
      <point x="1135" y="-1077"/>
      <point x="1180" y="-1117"/>
      <point x="1234" y="-1146" type="curve" smooth="yes"/>
      <point x="1288" y="-1175"/>
      <point x="1347" y="-1189"/>
      <point x="1410" y="-1189" type="curve" smooth="yes"/>
      <point x="1471" y="-1189"/>
      <point x="1529" y="-1174"/>
      <point x="1585" y="-1144" type="curve" smooth="yes"/>
      <point x="1641" y="-1114"/>
      <point x="1690" y="-1073"/>
      <point x="1733" y="-1020" type="curve"/>
      <point x="1733" y="-1180" type="line"/>
      <point x="1867" y="-1180" type="line"/>
      <point x="1867" y="-115" type="line"/>
      <point x="1733" y="-115" type="line"/>
      <point x="1733" y="-639" type="line" smooth="yes"/>
      <point x="1733" y="-711"/>
      <point x="1718" y="-779"/>
      <point x="1688" y="-844" type="curve" smooth="yes"/>
      <point x="1629" y="-972"/>
      <point x="1523" y="-1054"/>
      <point x="1411" y="-1054" type="curve" smooth="yes"/>
      <point x="1350" y="-1054"/>
      <point x="1296" y="-1035"/>
      <point x="1250" y="-996" type="curve" smooth="yes"/>
      <point x="1204" y="-957"/>
      <point x="1169" y="-907"/>
      <point x="1146" y="-845" type="curve" smooth="yes"/>
      <point x="1123" y="-783"/>
      <point x="1112" y="-715"/>
      <point x="1112" y="-640" type="curve" smooth="yes"/>
      <point x="1112" y="-115" type="line"/>
    </contour>
    <contour>
      <point x="1368" y="549" type="curve" smooth="yes"/>
      <point x="1368" y="452"/>
      <point x="1388" y="362"/>
      <point x="1428" y="277" type="curve" smooth="yes"/>
      <point x="1468" y="192"/>
      <point x="1523" y="125"/>
      <point x="1592" y="74" type="curve" smooth="yes"/>
      <point x="1661" y="24"/>
      <point x="1735" y="-1"/>
      <point x="1814" y="-1" type="curve" smooth="yes"/>
      <point x="1909" y="-1"/>
      <point x="1995" y="35"/>
      <point x="2071" y="106" type="curve" smooth="yes"/>
      <point x="2148" y="177"/>
      <point x="2201" y="268"/>
      <point x="2230" y="378" type="curve"/>
      <point x="2096" y="378" type="line"/>
      <point x="2071" y="306"/>
      <point x="2032" y="247"/>
      <point x="1981" y="202" type="curve" smooth="yes"/>
      <point x="1930" y="157"/>
      <point x="1873" y="134"/>
      <point x="1812" y="134" type="curve" smooth="yes"/>
      <point x="1771" y="134"/>
      <point x="1731" y="145"/>
      <point x="1693" y="168" type="curve" smooth="yes"/>
      <point x="1655" y="191"/>
      <point x="1622" y="221"/>
      <point x="1594" y="258" type="curve" smooth="yes"/>
      <point x="1566" y="296"/>
      <point x="1543" y="340"/>
      <point x="1526" y="391" type="curve" smooth="yes"/>
      <point x="1510" y="442"/>
      <point x="1502" y="494"/>
      <point x="1502" y="549" type="curve" smooth="yes"/>
      <point x="1501" y="622"/>
      <point x="1515" y="690"/>
      <point x="1543" y="753" type="curve" smooth="yes"/>
      <point x="1570" y="816"/>
      <point x="1608" y="867"/>
      <point x="1656" y="905" type="curve" smooth="yes"/>
      <point x="1704" y="943"/>
      <point x="1755" y="962"/>
      <point x="1810" y="962" type="curve" smooth="yes"/>
      <point x="1895" y="962"/>
      <point x="1975" y="914"/>
      <point x="2034" y="835" type="curve" smooth="yes"/>
      <point x="2062" y="796"/>
      <point x="2084" y="751"/>
      <point x="2100" y="701" type="curve"/>
      <point x="2234" y="701" type="line"/>
      <point x="2207" y="815"/>
      <point x="2155" y="909"/>
      <point x="2077" y="984" type="curve" smooth="yes"/>
      <point x="1999" y="1059"/>
      <point x="1911" y="1096"/>
      <point x="1814" y="1096" type="curve" smooth="yes"/>
      <point x="1735" y="1096"/>
      <point x="1661" y="1071"/>
      <point x="1592" y="1022" type="curve" smooth="yes"/>
      <point x="1523" y="972"/>
      <point x="1468" y="905"/>
      <point x="1428" y="820" type="curve" smooth="yes"/>
      <point x="1388" y="736"/>
      <point x="1368" y="646"/>
    </contour>
    <contour>
      <point x="2118" y="-107" type="line"/>
      <point x="2118" y="-1180" type="line"/>
      <point x="2252" y="-1180" type="line"/>
      <point x="2252" y="-561" type="line"/>
      <point x="2256" y="-499"/>
      <point x="2267" y="-444"/>
      <point x="2286" y="-396" type="curve" smooth="yes"/>
      <point x="2305" y="-349"/>
      <point x="2332" y="-310"/>
      <point x="2366" y="-280" type="curve" smooth="yes"/>
      <point x="2399" y="-249"/>
      <point x="2439" y="-229"/>
      <point x="2486" y="-220" type="curve" smooth="yes"/>
      <point x="2533" y="-211"/>
      <point x="2587" y="-215"/>
      <point x="2647" y="-230" type="curve"/>
      <point x="2647" y="-100" type="line"/>
      <point x="2564" y="-77"/>
      <point x="2489" y="-77"/>
      <point x="2422" y="-100" type="curve" smooth="yes"/>
      <point x="2355" y="-123"/>
      <point x="2299" y="-164"/>
      <point x="2252" y="-224" type="curve"/>
      <point x="2252" y="-107" type="line"/>
    </contour>
    <contour>
      <point x="2404" y="554" type="curve" smooth="yes"/>
      <point x="2404" y="457"/>
      <point x="2423" y="366"/>
      <point x="2462" y="282" type="curve" smooth="yes"/>
      <point x="2501" y="198"/>
      <point x="2554" y="131"/>
      <point x="2622" y="80" type="curve" smooth="yes"/>
      <point x="2691" y="30"/>
      <point x="2766" y="5"/>
      <point x="2849" y="5" type="curve" smooth="yes"/>
      <point x="2948" y="5"/>
      <point x="3035" y="40"/>
      <point x="3109" y="110" type="curve" smooth="yes"/>
      <point x="3183" y="180"/>
      <point x="3235" y="271"/>
      <point x="3266" y="383" type="curve"/>
      <point x="3131" y="383" type="line"/>
      <point x="3105" y="309"/>
      <point x="3067" y="250"/>
      <point x="3018" y="206" type="curve" smooth="yes"/>
      <point x="2969" y="161"/>
      <point x="2913" y="139"/>
      <point x="2848" y="139" type="curve" smooth="yes"/>
      <point x="2789" y="139"/>
      <point x="2736" y="158"/>
      <point x="2688" y="196" type="curve" smooth="yes"/>
      <point x="2640" y="235"/>
      <point x="2603" y="286"/>
      <point x="2576" y="349" type="curve" smooth="yes"/>
      <point x="2550" y="412"/>
      <point x="2537" y="481"/>
      <point x="2537" y="554" type="curve" smooth="yes"/>
      <point x="2537" y="573" type="line"/>
      <point x="3271" y="573" type="line"/>
      <point x="3271" y="653"/>
      <point x="3259" y="727"/>
      <point x="3235" y="794" type="curve" smooth="yes"/>
      <point x="3211" y="862"/>
      <point x="3179" y="918"/>
      <point x="3140" y="962" type="curve" smooth="yes"/>
      <point x="3061" y="1050"/>
      <point x="2958" y="1101"/>
      <point x="2854" y="1101" type="curve" smooth="yes"/>
      <point x="2771" y="1101"/>
      <point x="2695" y="1076"/>
      <point x="2626" y="1026" type="curve" smooth="yes"/>
      <point x="2557" y="976"/>
      <point x="2502" y="909"/>
      <point x="2463" y="826" type="curve" smooth="yes"/>
      <point x="2424" y="742"/>
      <point x="2404" y="651"/>
    </contour>
    <contour>
      <point x="3134" y="701" type="curve"/>
      <point x="2561" y="701" type="line"/>
      <point x="2577" y="757"/>
      <point x="2597" y="802"/>
      <point x="2622" y="837" type="curve" smooth="yes"/>
      <point x="2650" y="877"/>
      <point x="2684" y="909"/>
      <point x="2724" y="932" type="curve" smooth="yes"/>
      <point x="2763" y="955"/>
      <point x="2806" y="966"/>
      <point x="2851" y="966" type="curve" smooth="yes"/>
      <point x="2930" y="966"/>
      <point x="3006" y="930"/>
      <point x="3069" y="847" type="curve" smooth="yes"/>
      <point x="3098" y="810"/>
      <point x="3119" y="762"/>
    </contour>
  </outline>
</glyph>
