<?xml version='1.0' encoding='UTF-8'?>
<glyph name="eacute_e" format="2">
  <advance width="1746"/>
  <unicode hex="F1920"/>
  <note>
uF1920
</note>
  <outline>
    <contour>
      <point x="1226" y="-7" type="curve" smooth="yes"/>
      <point x="1325" y="-7"/>
      <point x="1412" y="28"/>
      <point x="1486" y="98" type="curve" smooth="yes"/>
      <point x="1560" y="168"/>
      <point x="1612" y="259"/>
      <point x="1643" y="371" type="curve"/>
      <point x="1508" y="371" type="line"/>
      <point x="1482" y="297"/>
      <point x="1445" y="238"/>
      <point x="1396" y="194" type="curve" smooth="yes"/>
      <point x="1347" y="149"/>
      <point x="1290" y="127"/>
      <point x="1225" y="127" type="curve" smooth="yes"/>
      <point x="1166" y="127"/>
      <point x="1113" y="146"/>
      <point x="1065" y="184" type="curve" smooth="yes"/>
      <point x="1050" y="197"/>
      <point x="1034" y="214"/>
      <point x="1017" y="236" type="curve" smooth="yes"/>
      <point x="1000" y="258"/>
      <point x="985" y="281"/>
      <point x="972" y="304" type="curve" smooth="yes"/>
      <point x="959" y="327"/>
      <point x="947" y="350"/>
      <point x="938" y="372" type="curve"/>
      <point x="803" y="372" type="line"/>
      <point x="780" y="306"/>
      <point x="739" y="247"/>
      <point x="681" y="194" type="curve" smooth="yes"/>
      <point x="632" y="150"/>
      <point x="576" y="128"/>
      <point x="511" y="128" type="curve" smooth="yes"/>
      <point x="447" y="128"/>
      <point x="391" y="147"/>
      <point x="342" y="186" type="curve" smooth="yes"/>
      <point x="294" y="224"/>
      <point x="257" y="275"/>
      <point x="230" y="338" type="curve" smooth="yes"/>
      <point x="204" y="401"/>
      <point x="191" y="470"/>
      <point x="191" y="543" type="curve" smooth="yes"/>
      <point x="191" y="562" type="line"/>
      <point x="1648" y="561" type="line"/>
      <point x="1648" y="641"/>
      <point x="1636" y="715"/>
      <point x="1612" y="782" type="curve" smooth="yes"/>
      <point x="1588" y="850"/>
      <point x="1556" y="906"/>
      <point x="1517" y="950" type="curve" smooth="yes"/>
      <point x="1438" y="1038"/>
      <point x="1335" y="1089"/>
      <point x="1231" y="1089" type="curve" smooth="yes"/>
      <point x="1148" y="1089"/>
      <point x="1072" y="1064"/>
      <point x="1003" y="1014" type="curve" smooth="yes"/>
      <point x="945" y="972"/>
      <point x="897" y="918"/>
      <point x="860" y="852" type="curve"/>
      <point x="841" y="890"/>
      <point x="819" y="923"/>
      <point x="794" y="951" type="curve" smooth="yes"/>
      <point x="755" y="995"/>
      <point x="710" y="1029"/>
      <point x="660" y="1054" type="curve" smooth="yes"/>
      <point x="611" y="1078"/>
      <point x="560" y="1090"/>
      <point x="508" y="1090" type="curve" smooth="yes"/>
      <point x="425" y="1090"/>
      <point x="349" y="1065"/>
      <point x="280" y="1015" type="curve" smooth="yes"/>
      <point x="211" y="965"/>
      <point x="156" y="898"/>
      <point x="117" y="814" type="curve" smooth="yes"/>
      <point x="78" y="731"/>
      <point x="58" y="640"/>
      <point x="58" y="543" type="curve" smooth="yes"/>
      <point x="58" y="446"/>
      <point x="77" y="355"/>
      <point x="116" y="271" type="curve" smooth="yes"/>
      <point x="155" y="187"/>
      <point x="208" y="120"/>
      <point x="277" y="70" type="curve" smooth="yes"/>
      <point x="345" y="20"/>
      <point x="423" y="-5"/>
      <point x="512" y="-6" type="curve" smooth="yes"/>
      <point x="611" y="-6"/>
      <point x="698" y="29"/>
      <point x="772" y="99" type="curve" smooth="yes"/>
      <point x="810" y="134"/>
      <point x="842" y="173"/>
      <point x="868" y="214" type="curve"/>
      <point x="903" y="156"/>
      <point x="947" y="107"/>
      <point x="999" y="68" type="curve" smooth="yes"/>
      <point x="1068" y="18"/>
      <point x="1143" y="-7"/>
    </contour>
    <contour>
      <point x="791" y="690" type="curve"/>
      <point x="212" y="690" type="line"/>
      <point x="235" y="768"/>
      <point x="272" y="832"/>
      <point x="325" y="881" type="curve" smooth="yes"/>
      <point x="378" y="930"/>
      <point x="438" y="955"/>
      <point x="505" y="955" type="curve" smooth="yes"/>
      <point x="534" y="955"/>
      <point x="563" y="949"/>
      <point x="592" y="938" type="curve" smooth="yes"/>
      <point x="621" y="927"/>
      <point x="648" y="910"/>
      <point x="674" y="889" type="curve" smooth="yes"/>
      <point x="700" y="868"/>
      <point x="723" y="840"/>
      <point x="744" y="806" type="curve" smooth="yes"/>
      <point x="765" y="771"/>
      <point x="780" y="733"/>
    </contour>
    <contour>
      <point x="1511" y="689" type="curve"/>
      <point x="938" y="689" type="line"/>
      <point x="954" y="745"/>
      <point x="974" y="791"/>
      <point x="999" y="826" type="curve" smooth="yes"/>
      <point x="1027" y="865"/>
      <point x="1061" y="897"/>
      <point x="1100" y="920" type="curve" smooth="yes"/>
      <point x="1140" y="943"/>
      <point x="1183" y="954"/>
      <point x="1228" y="954" type="curve" smooth="yes"/>
      <point x="1307" y="954"/>
      <point x="1383" y="917"/>
      <point x="1446" y="836" type="curve" smooth="yes"/>
      <point x="1475" y="799"/>
      <point x="1496" y="750"/>
    </contour>
    <contour>
      <point x="846" y="1519" type="line"/>
      <point x="185" y="1276" type="line"/>
      <point x="227" y="1159" type="line"/>
      <point x="888" y="1401" type="line"/>
    </contour>
  </outline>
</glyph>
