<?xml version='1.0' encoding='UTF-8'?>
<glyph name="uni00B5" format="2">
  <advance width="1252"/>
  <unicode hex="00B5"/>
  <note>
uni00B5
</note>
  <outline>
    <contour>
      <point x="116" y="470" type="curve"/>
      <point x="116" y="-403" type="line"/>
      <point x="247" y="-403" type="line"/>
      <point x="247" y="151" type="line"/>
      <point x="288" y="102"/>
      <point x="334" y="63"/>
      <point x="386" y="35" type="curve" smooth="yes"/>
      <point x="439" y="8"/>
      <point x="494" y="-6"/>
      <point x="552" y="-6" type="curve" smooth="yes"/>
      <point x="611" y="-6"/>
      <point x="668" y="8"/>
      <point x="722" y="37" type="curve" smooth="yes"/>
      <point x="775" y="66"/>
      <point x="823" y="105"/>
      <point x="864" y="156" type="curve"/>
      <point x="864" y="0" type="line"/>
      <point x="998" y="0" type="line"/>
      <point x="998" y="1112" type="line"/>
      <point x="864" y="1112" type="line"/>
      <point x="864" y="544" type="line" smooth="yes"/>
      <point x="864" y="471"/>
      <point x="850" y="403"/>
      <point x="822" y="339" type="curve" smooth="yes"/>
      <point x="794" y="276"/>
      <point x="756" y="225"/>
      <point x="708" y="187" type="curve" smooth="yes"/>
      <point x="660" y="149"/>
      <point x="608" y="130"/>
      <point x="553" y="130" type="curve" smooth="yes"/>
      <point x="503" y="130"/>
      <point x="456" y="145"/>
      <point x="412" y="176" type="curve" smooth="yes"/>
      <point x="367" y="207"/>
      <point x="331" y="250"/>
      <point x="302" y="303" type="curve" smooth="yes"/>
      <point x="273" y="356"/>
      <point x="255" y="415"/>
      <point x="247" y="478" type="curve"/>
      <point x="247" y="1112" type="line"/>
      <point x="116" y="1112" type="line"/>
      <point x="116" y="543" type="line"/>
      <point x="112" y="543" type="line"/>
      <point x="112" y="519"/>
      <point x="113" y="495"/>
    </contour>
  </outline>
</glyph>
